Date,Display,Category,Weight,Int Lumi / Day ATL/CMS,Int Lumi ATLAS / CMS,Int Lumi / Day LHCb,Int Lumi LHCb,,Mode,Weight,,Model Parameter,ATLAS/CMS,LHCb,
1/1/2023,,SHUTDOWN,0,0.000,0.000,0.000,0.000,,SHUTDOWN,0,,Peak Lumi,21000,1700,Hz/ub
2/1/2023,,SHUTDOWN,0,0.000,0.000,0.000,0.000,,COMMISSIONING,0,,Levelled time @ Peak,9,13,h
3/1/2023,,SHUTDOWN,0,0.000,0.000,0.000,0.000,,PROTON_PHYSICS,1,,Lumi Lifetime (after lvl),12,0,h
4/1/2023,,SHUTDOWN,0,0.000,0.000,0.000,0.000,,MD,0,,Total Fill Length,13,,h
5/1/2023,,SHUTDOWN,0,0.000,0.000,0.000,0.000,,TS,0,,Int Lumi per Fill,0.938,0.080,fb-1
6/1/2023,,SHUTDOWN,0,0.000,0.000,0.000,0.000,,SPECIAL_PHYSICS,0.01,,Turnaround time,2.5,,h
7/1/2023,,SHUTDOWN,0,0.000,0.000,0.000,0.000,,ION_PHYSICS,0,,Lumi / Day best case,1.452,0.123,fb-1
8/1/2023,,SHUTDOWN,0,0.000,0.000,0.000,0.000,,INT_RAMPUP,set manually,,Availability Factor,0.55,,wrt best case
9/1/2023,,SHUTDOWN,0,0.000,0.000,0.000,0.000,,,,,Int Lumi per day,0.798,0.068,fb-1
10/1/2023,,SHUTDOWN,0,0.000,0.000,0.000,0.000,,,,,Int Lumi over the year,40.967,3.476,fb-1
11/1/2023,,SHUTDOWN,0,0.000,0.000,0.000,0.000,,,,,Int Lumi target,75,,fb-1
12/1/2023,,SHUTDOWN,0,0.000,0.000,0.000,0.000,,,,,,,,
13/1/2023,,SHUTDOWN,0,0.000,0.000,0.000,0.000,,,,,,,,
14/1/2023,,SHUTDOWN,0,0.000,0.000,0.000,0.000,,,,,,,,
15/1/2023,,SHUTDOWN,0,0.000,0.000,0.000,0.000,,,,,,,,
16/1/2023,,SHUTDOWN,0,0.000,0.000,0.000,0.000,,,,,,,,
17/1/2023,,SHUTDOWN,0,0.000,0.000,0.000,0.000,,,,,,,,
18/1/2023,,SHUTDOWN,0,0.000,0.000,0.000,0.000,,,,,,,,
19/1/2023,,SHUTDOWN,0,0.000,0.000,0.000,0.000,,,,,,,,
20/1/2023,,SHUTDOWN,0,0.000,0.000,0.000,0.000,,,,,,,,
21/1/2023,,SHUTDOWN,0,0.000,0.000,0.000,0.000,,,,,,,,
22/1/2023,,SHUTDOWN,0,0.000,0.000,0.000,0.000,,,,,,,,
23/1/2023,,SHUTDOWN,0,0.000,0.000,0.000,0.000,,,,,,,,
24/1/2023,,SHUTDOWN,0,0.000,0.000,0.000,0.000,,,,,,,,
25/1/2023,,SHUTDOWN,0,0.000,0.000,0.000,0.000,,,,,,,,
26/1/2023,,SHUTDOWN,0,0.000,0.000,0.000,0.000,,,,,,,,
27/1/2023,,SHUTDOWN,0,0.000,0.000,0.000,0.000,,,,,,,,
28/1/2023,,SHUTDOWN,0,0.000,0.000,0.000,0.000,,,,,,,,
29/1/2023,,SHUTDOWN,0,0.000,0.000,0.000,0.000,,,,,,,,
30/1/2023,,SHUTDOWN,0,0.000,0.000,0.000,0.000,,,,,,,,
31/1/2023,,SHUTDOWN,0,0.000,0.000,0.000,0.000,,,,,,,,
1/2/2023,,SHUTDOWN,0,0.000,0.000,0.000,0.000,,,,,,,,
2/2/2023,,SHUTDOWN,0,0.000,0.000,0.000,0.000,,,,,,,,
3/2/2023,,SHUTDOWN,0,0.000,0.000,0.000,0.000,,,,,,,,
4/2/2023,,SHUTDOWN,0,0.000,0.000,0.000,0.000,,,,,,,,
5/2/2023,,SHUTDOWN,0,0.000,0.000,0.000,0.000,,,,,,,,
6/2/2023,,SHUTDOWN,0,0.000,0.000,0.000,0.000,,,,,,,,
7/2/2023,,SHUTDOWN,0,0.000,0.000,0.000,0.000,,,,,,,,
8/2/2023,,SHUTDOWN,0,0.000,0.000,0.000,0.000,,,,,,,,
9/2/2023,,SHUTDOWN,0,0.000,0.000,0.000,0.000,,,,,,,,
10/2/2023,,SHUTDOWN,0,0.000,0.000,0.000,0.000,,,,,,,,
11/2/2023,,SHUTDOWN,0,0.000,0.000,0.000,0.000,,,,,,,,
12/2/2023,,SHUTDOWN,0,0.000,0.000,0.000,0.000,,,,,,,,
13/2/2023,,SHUTDOWN,0,0.000,0.000,0.000,0.000,,,,,,,,
14/2/2023,,SHUTDOWN,0,0.000,0.000,0.000,0.000,,,,,,,,
15/2/2023,,SHUTDOWN,0,0.000,0.000,0.000,0.000,,,,,,,,
16/2/2023,,SHUTDOWN,0,0.000,0.000,0.000,0.000,,,,,,,,
17/2/2023,,SHUTDOWN,0,0.000,0.000,0.000,0.000,,,,,,,,
18/2/2023,,SHUTDOWN,0,0.000,0.000,0.000,0.000,,,,,,,,
19/2/2023,,SHUTDOWN,0,0.000,0.000,0.000,0.000,,,,,,,,
20/2/2023,,SHUTDOWN,0,0.000,0.000,0.000,0.000,,,,,,,,
21/2/2023,,SHUTDOWN,0,0.000,0.000,0.000,0.000,,,,,,,,
22/2/2023,,SHUTDOWN,0,0.000,0.000,0.000,0.000,,,,,,,,
23/2/2023,,SHUTDOWN,0,0.000,0.000,0.000,0.000,,,,,,,,
24/2/2023,,SHUTDOWN,0,0.000,0.000,0.000,0.000,,,,,,,,
25/2/2023,,SHUTDOWN,0,0.000,0.000,0.000,0.000,,,,,,,,
26/2/2023,,SHUTDOWN,0,0.000,0.000,0.000,0.000,,,,,,,,
27/2/2023,,SHUTDOWN,0,0.000,0.000,0.000,0.000,,,,,,,,
28/2/2023,,SHUTDOWN,0,0.000,0.000,0.000,0.000,,,,,,,,
1/3/2023,,SHUTDOWN,0,0.000,0.000,0.000,0.000,,,,,,,,
2/3/2023,,SHUTDOWN,0,0.000,0.000,0.000,0.000,,,,,,,,
3/3/2023,,SHUTDOWN,0,0.000,0.000,0.000,0.000,,,,,,,,
4/3/2023,,SHUTDOWN,0,0.000,0.000,0.000,0.000,,,,,,,,
5/3/2023,,SHUTDOWN,0,0.000,0.000,0.000,0.000,,,,,,,,
6/3/2023,,SHUTDOWN,0,0.000,0.000,0.000,0.000,,,,,,,,
7/3/2023,,SHUTDOWN,0,0.000,0.000,0.000,0.000,,,,,,,,
8/3/2023,,SHUTDOWN,0,0.000,0.000,0.000,0.000,,,,,,,,
9/3/2023,,SHUTDOWN,0,0.000,0.000,0.000,0.000,,,,,,,,
10/3/2023,,SHUTDOWN,0,0.000,0.000,0.000,0.000,,,,,,,,
11/3/2023,,SHUTDOWN,0,0.000,0.000,0.000,0.000,,,,,,,,
12/3/2023,,SHUTDOWN,0,0.000,0.000,0.000,0.000,,,,,,,,
13/3/2023,,SHUTDOWN,0,0.000,0.000,0.000,0.000,,,,,,,,
14/3/2023,,SHUTDOWN,0,0.000,0.000,0.000,0.000,,,,,,,,
15/3/2023,,SHUTDOWN,0,0.000,0.000,0.000,0.000,,,,,,,,
16/3/2023,,SHUTDOWN,0,0.000,0.000,0.000,0.000,,,,,,,,
17/3/2023,,SHUTDOWN,0,0.000,0.000,0.000,0.000,,,,,,,,
18/3/2023,,SHUTDOWN,0,0.000,0.000,0.000,0.000,,,,,,,,
19/3/2023,,SHUTDOWN,0,0.000,0.000,0.000,0.000,,,,,,,,
20/3/2023,,SHUTDOWN,0,0.000,0.000,0.000,0.000,,,,,,,,
21/3/2023,,SHUTDOWN,0,0.000,0.000,0.000,0.000,,,,,,,,
22/3/2023,,SHUTDOWN,0,0.000,0.000,0.000,0.000,,,,,,,,
23/3/2023,,SHUTDOWN,0,0.000,0.000,0.000,0.000,,,,,,,,
24/3/2023,,SHUTDOWN,0,0.000,0.000,0.000,0.000,,,,,,,,
25/3/2023,,SHUTDOWN,0,0.000,0.000,0.000,0.000,,,,,,,,
26/3/2023,,SHUTDOWN,0,0.000,0.000,0.000,0.000,,,,,,,,
27/3/2023,,SHUTDOWN,0,0.000,0.000,0.000,0.000,,,,,,,,
28/3/2023,,COMMISSIONING,0,0.000,0.000,0.000,0.000,,,,,,,,
29/3/2023,,COMMISSIONING,0,0.000,0.000,0.000,0.000,,,,,,,,
30/3/2023,,COMMISSIONING,0,0.000,0.000,0.000,0.000,,,,,,,,
31/3/2023,,COMMISSIONING,0,0.000,0.000,0.000,0.000,,,,,,,,
1/4/2023,,COMMISSIONING,0,0.000,0.000,0.000,0.000,,,,,,,,
2/4/2023,,COMMISSIONING,0,0.000,0.000,0.000,0.000,,,,,,,,
3/4/2023,,COMMISSIONING,0,0.000,0.000,0.000,0.000,,,,,,,,
4/4/2023,,COMMISSIONING,0,0.000,0.000,0.000,0.000,,,,,,,,
5/4/2023,,COMMISSIONING,0,0.000,0.000,0.000,0.000,,,,,,,,
6/4/2023,,COMMISSIONING,0,0.000,0.000,0.000,0.000,,,,,,,,
7/4/2023,,COMMISSIONING,0,0.000,0.000,0.000,0.000,,,,,,,,
8/4/2023,,COMMISSIONING,0,0.000,0.000,0.000,0.000,,,,,,,,
9/4/2023,,COMMISSIONING,0,0.000,0.000,0.000,0.000,,,,,,,,
10/4/2023,,COMMISSIONING,0,0.000,0.000,0.000,0.000,,,,,,,,
11/4/2023,,COMMISSIONING,0,0.000,0.000,0.000,0.000,,,,,,,,
12/4/2023,,COMMISSIONING,0,0.000,0.000,0.000,0.000,,,,,,,,
13/4/2023,,COMMISSIONING,0,0.000,0.000,0.000,0.000,,,,,,,,
14/4/2023,,COMMISSIONING,0,0.000,0.000,0.000,0.000,,,,,,,,
15/4/2023,,COMMISSIONING,0,0.000,0.000,0.000,0.000,,,,,,,,
16/4/2023,,COMMISSIONING,0,0.000,0.000,0.000,0.000,,,,,,,,
17/4/2023,,COMMISSIONING,0,0.000,0.000,0.000,0.000,,,,,,,,
18/4/2023,,COMMISSIONING,0,0.000,0.000,0.000,0.000,,,,,,,,
19/4/2023,,COMMISSIONING,0,0.000,0.000,0.000,0.000,,,,,,,,
20/4/2023,,COMMISSIONING,0,0.000,0.000,0.000,0.000,,,,,,,,
21/4/2023,,COMMISSIONING,0,0.000,0.000,0.000,0.000,,,,,,,,
22/4/2023,,INT_RAMPUP,0.025,0.020,0.020,0.002,0.002,,,,,,,,
23/4/2023,,INT_RAMPUP,0.05,0.040,0.060,0.003,0.005,,,,,,,,
24/4/2023,,INT_RAMPUP,0.075,0.060,0.120,0.005,0.010,,,,,,,,
25/4/2023,,INT_RAMPUP,0.1,0.080,0.200,0.007,0.017,,,,,,,,
26/4/2023,,INT_RAMPUP,0.125,0.100,0.299,0.008,0.025,,,,,,,,
27/4/2023,,INT_RAMPUP,0.15,0.120,0.419,0.010,0.036,,,,,,,,
28/4/2023,,INT_RAMPUP,0.175,0.140,0.559,0.012,0.047,,,,,,,,
29/4/2023,,INT_RAMPUP,0.2,0.160,0.719,0.014,0.061,,,,,,,,
30/4/2023,,INT_RAMPUP,0.225,0.180,0.898,0.015,0.076,,,,,,,,
1/5/2023,,INT_RAMPUP,0.25,0.200,1.098,0.017,0.093,,,,,,,,
2/5/2023,,INT_RAMPUP,0.275,0.220,1.317,0.019,0.112,,,,,,,,
3/5/2023,,INT_RAMPUP,0.3,0.240,1.557,0.020,0.132,,,,,,,,
4/5/2023,,INT_RAMPUP,0.325,0.259,1.816,0.022,0.154,,,,,,,,
5/5/2023,,INT_RAMPUP,0.35,0.279,2.096,0.024,0.178,,,,,,,,
6/5/2023,,INT_RAMPUP,0.375,0.299,2.395,0.025,0.203,,,,,,,,
7/5/2023,,INT_RAMPUP,0.4,0.319,2.715,0.027,0.230,,,,,,,,
8/5/2023,,INT_RAMPUP,0.425,0.339,3.054,0.029,0.259,,,,,,,,
9/5/2023,,INT_RAMPUP,0.45,0.359,3.413,0.030,0.290,,,,,,,,
10/5/2023,,INT_RAMPUP,0.475,0.379,3.793,0.032,0.322,,,,,,,,
11/5/2023,,INT_RAMPUP,0.5,0.399,4.192,0.034,0.356,,,,,,,,
12/5/2023,,INT_RAMPUP,0.525,0.419,4.611,0.036,0.391,,,,,,,,
13/5/2023,,INT_RAMPUP,0.55,0.439,5.050,0.037,0.429,,,,,,,,
14/5/2023,,INT_RAMPUP,0.575,0.459,5.509,0.039,0.468,,,,,,,,
15/5/2023,,INT_RAMPUP,0.6,0.479,5.988,0.041,0.508,,,,,,,,
16/5/2023,,INT_RAMPUP,0.625,0.499,6.487,0.042,0.551,,,,,,,,
17/5/2023,,INT_RAMPUP,0.65,0.519,7.006,0.044,0.595,,,,,,,,
18/5/2023,,INT_RAMPUP,0.675,0.539,7.545,0.046,0.640,,,,,,,,
19/5/2023,,INT_RAMPUP,0.7,0.559,8.104,0.047,0.688,,,,,,,,
20/5/2023,,INT_RAMPUP,0.725,0.579,8.683,0.049,0.737,,,,,,,,
21/5/2023,,INT_RAMPUP,0.75,0.599,9.282,0.051,0.788,,,,,,,,
22/5/2023,,INT_RAMPUP,0.775,0.619,9.900,0.053,0.840,,,,,,,,
23/5/2023,,INT_RAMPUP,0.8,0.639,10.539,0.054,0.894,,,,,,,,
24/5/2023,,INT_RAMPUP,0.825,0.659,11.198,0.056,0.950,,,,,,,,
25/5/2023,,INT_RAMPUP,0.85,0.679,11.877,0.058,1.008,,,,,,,,
26/5/2023,,INT_RAMPUP,0.875,0.699,12.575,0.059,1.067,,,,,,,,
27/5/2023,,INT_RAMPUP,0.9,0.719,13.294,0.061,1.128,,,,,,,,
28/5/2023,,PROTON_PHYSICS,1,0.798,14.092,0.068,1.196,,,,,,,,
29/5/2023,,PROTON_PHYSICS,1,0.798,14.891,0.068,1.264,,,,,,,,
30/5/2023,,PROTON_PHYSICS,1,0.798,15.689,0.068,1.331,,,,,,,,
31/5/2023,,PROTON_PHYSICS,1,0.798,16.487,0.068,1.399,,,,,,,,
1/6/2023,,PROTON_PHYSICS,1,0.798,17.286,0.068,1.467,,,,,,,,
2/6/2023,,PROTON_PHYSICS,1,0.798,18.084,0.068,1.535,,,,,,,,
3/6/2023,,PROTON_PHYSICS,1,0.798,18.883,0.068,1.602,,,,,,,,
4/6/2023,,PROTON_PHYSICS,1,0.798,19.681,0.068,1.670,,,,,,,,
5/6/2023,,PROTON_PHYSICS,1,0.798,20.480,0.068,1.738,,,,,,,,
6/6/2023,,PROTON_PHYSICS,1,0.798,21.278,0.068,1.806,,,,,,,,
7/6/2023,,PROTON_PHYSICS,1,0.798,22.076,0.068,1.873,,,,,,,,
8/6/2023,,PROTON_PHYSICS,1,0.798,22.875,0.068,1.941,,,,,,,,
9/6/2023,,PROTON_PHYSICS,1,0.798,23.673,0.068,2.009,,,,,,,,
10/6/2023,,PROTON_PHYSICS,1,0.798,24.472,0.068,2.077,,,,,,,,
11/6/2023,,PROTON_PHYSICS,1,0.798,25.270,0.068,2.144,,,,,,,,
12/6/2023,,PROTON_PHYSICS,1,0.798,26.069,0.068,2.212,,,,,,,,
13/6/2023,,PROTON_PHYSICS,1,0.798,26.867,0.068,2.280,,,,,,,,
14/6/2023,MD1,MD,0,0.000,26.867,0.000,2.280,,,,,,,,
15/6/2023,MD1,MD,0,0.000,26.867,0.000,2.280,,,,,,,,
16/6/2023,MD1,MD,0,0.000,26.867,0.000,2.280,,,,,,,,
17/6/2023,MD1,MD,0,0.000,26.867,0.000,2.280,,,,,,,,
18/6/2023,MD1,MD,0,0.000,26.867,0.000,2.280,,,,,,,,
19/6/2023,TS1,TS,0,0.000,26.867,0.000,2.280,,,,,,,,
20/6/2023,TS1,TS,0,0.000,26.867,0.000,2.280,,,,,,,,
21/6/2023,TS1,TS,0,0.000,26.867,0.000,2.280,,,,,,,,
22/6/2023,TS1,TS,0,0.000,26.867,0.000,2.280,,,,,,,,
23/6/2023,TS1,TS,0,0.000,26.867,0.000,2.280,,,,,,,,
24/6/2023,TS1,TS,0,0.000,26.867,0.000,2.280,,,,,,,,
25/6/2023,90m run,SPECIAL_PHYSICS,0.01,0.008,26.875,0.001,2.281,,,,,,,,
26/6/2023,,INT_RAMPUP,0.25,0.200,27.075,0.017,2.298,,,,,,,,
27/6/2023,VdM program,SPECIAL_PHYSICS,0.01,0.008,27.083,0.001,2.298,,,,,,,,
28/6/2023,VdM program,SPECIAL_PHYSICS,0.01,0.008,27.091,0.001,2.299,,,,,,,,
29/6/2023,,INT_RAMPUP,0.5,0.399,27.490,0.034,2.333,,,,,,,,
30/6/2023,,INT_RAMPUP,0.75,0.599,28.089,0.051,2.384,,,,,,,,
1/7/2023,,PROTON_PHYSICS,1,0.798,28.887,0.068,2.451,,,,,,,,
2/7/2023,,PROTON_PHYSICS,1,0.798,29.685,0.068,2.519,,,,,,,,
3/7/2023,,PROTON_PHYSICS,1,0.798,30.484,0.068,2.587,,,,,,,,
4/7/2023,,PROTON_PHYSICS,1,0.798,31.282,0.068,2.655,,,,,,,,
5/7/2023,,PROTON_PHYSICS,1,0.798,32.081,0.068,2.722,,,,,,,,
6/7/2023,,PROTON_PHYSICS,1,0.798,32.879,0.068,2.790,,,,,,,,
7/7/2023,,PROTON_PHYSICS,1,0.798,33.678,0.068,2.858,,,,,,,,
8/7/2023,,PROTON_PHYSICS,1,0.798,34.476,0.068,2.926,,,,,,,,
9/7/2023,,PROTON_PHYSICS,1,0.798,35.274,0.068,2.993,,,,,,,,
10/7/2023,,PROTON_PHYSICS,1,0.798,36.073,0.068,3.061,,,,,,,,
11/7/2023,,PROTON_PHYSICS,1,0.798,36.871,0.068,3.129,,,,,,,,
12/7/2023,,PROTON_PHYSICS,1,0.798,37.670,0.068,3.197,,,,,,,,
13/7/2023,,PROTON_PHYSICS,1,0.798,38.468,0.068,3.264,,,,,,,,
14/7/2023,,PROTON_PHYSICS,1,0.798,39.267,0.068,3.332,,,,,,,,
15/7/2023,,PROTON_PHYSICS,1,0.798,40.065,0.068,3.400,,,,,,,,
16/7/2023,,PROTON_PHYSICS,1,0.798,40.863,0.068,3.468,,,,,,,,
17/7/2023,ITL8 stop,TS,0,0.000,40.863,0.000,3.468,,,,,,,,
18/7/2023,ITL8 stop,TS,0,0.000,40.863,0.000,3.468,,,,,,,,
19/7/2023,ITL8 stop,TS,0,0.000,40.863,0.000,3.468,,,,,,,,
20/7/2023,ITL8 stop,TS,0,0.000,40.863,0.000,3.468,,,,,,,,
21/7/2023,ITL8 stop,TS,0,0.000,40.863,0.000,3.468,,,,,,,,
22/7/2023,ITL8 stop,TS,0,0.000,40.863,0.000,3.468,,,,,,,,
23/7/2023,ITL8 stop,TS,0,0.000,40.863,0.000,3.468,,,,,,,,
24/7/2023,ITL8 stop,TS,0,0.000,40.863,0.000,3.468,,,,,,,,
25/7/2023,ITL8 stop,TS,0,0.000,40.863,0.000,3.468,,,,,,,,
26/7/2023,ITL8 stop,TS,0,0.000,40.863,0.000,3.468,,,,,,,,
27/7/2023,ITL8 stop,TS,0,0.000,40.863,0.000,3.468,,,,,,,,
28/7/2023,ITL8 stop,TS,0,0.000,40.863,0.000,3.468,,,,,,,,
29/7/2023,ITL8 stop,TS,0,0.000,40.863,0.000,3.468,,,,,,,,
30/7/2023,ITL8 stop,TS,0,0.000,40.863,0.000,3.468,,,,,,,,
31/7/2023,ITL8 stop,TS,0,0.000,40.863,0.000,3.468,,,,,,,,
1/8/2023,ITL8 stop,TS,0,0.000,40.863,0.000,3.468,,,,,,,,
2/8/2023,ITL8 stop,TS,0,0.000,40.863,0.000,3.468,,,,,,,,
3/8/2023,ITL8 stop,TS,0,0.000,40.863,0.000,3.468,,,,,,,,
4/8/2023,ITL8 stop,TS,0,0.000,40.863,0.000,3.468,,,,,,,,
5/8/2023,ITL8 stop,TS,0,0.000,40.863,0.000,3.468,,,,,,,,
6/8/2023,ITL8 stop,TS,0,0.000,40.863,0.000,3.468,,,,,,,,
7/8/2023,ITL8 stop,TS,0,0.000,40.863,0.000,3.468,,,,,,,,
8/8/2023,ITL8 stop,TS,0,0.000,40.863,0.000,3.468,,,,,,,,
9/8/2023,ITL8 stop,TS,0,0.000,40.863,0.000,3.468,,,,,,,,
10/8/2023,ITL8 stop,TS,0,0.000,40.863,0.000,3.468,,,,,,,,
11/8/2023,ITL8 stop,TS,0,0.000,40.863,0.000,3.468,,,,,,,,
12/8/2023,ITL8 stop,TS,0,0.000,40.863,0.000,3.468,,,,,,,,
13/8/2023,ITL8 stop,TS,0,0.000,40.863,0.000,3.468,,,,,,,,
14/8/2023,ITL8 stop,TS,0,0.000,40.863,0.000,3.468,,,,,,,,
15/8/2023,ITL8 stop,TS,0,0.000,40.863,0.000,3.468,,,,,,,,
16/8/2023,ITL8 stop,TS,0,0.000,40.863,0.000,3.468,,,,,,,,
17/8/2023,ITL8 stop,TS,0,0.000,40.863,0.000,3.468,,,,,,,,
18/8/2023,ITL8 stop,TS,0,0.000,40.863,0.000,3.468,,,,,,,,
19/8/2023,ITL8 stop,TS,0,0.000,40.863,0.000,3.468,,,,,,,,
20/8/2023,ITL8 stop,TS,0,0.000,40.863,0.000,3.468,,,,,,,,
21/8/2023,ITL8 stop,TS,0,0.000,40.863,0.000,3.468,,,,,,,,
22/8/2023,ITL8 stop,TS,0,0.000,40.863,0.000,3.468,,,,,,,,
23/8/2023,ITL8 stop,TS,0,0.000,40.863,0.000,3.468,,,,,,,,
24/8/2023,ITL8 stop,TS,0,0.000,40.863,0.000,3.468,,,,,,,,
25/8/2023,ITL8 stop,TS,0,0.000,40.863,0.000,3.468,,,,,,,,
26/8/2023,ITL8 stop,TS,0,0.000,40.863,0.000,3.468,,,,,,,,
27/8/2023,ITL8 stop,TS,0,0.000,40.863,0.000,3.468,,,,,,,,
28/8/2023,ITL8 stop,TS,0,0.000,40.863,0.000,3.468,,,,,,,,
29/8/2023,ITL8 stop,TS,0,0.000,40.863,0.000,3.468,,,,,,,,
30/8/2023,ITL8 stop,TS,0,0.000,40.863,0.000,3.468,,,,,,,,
31/8/2023,,COMMISSIONING,0,0.000,40.863,0.000,3.468,,,,,,,,
1/9/2023,,COMMISSIONING,0,0.000,40.863,0.000,3.468,,,,,,,,
2/9/2023,,COMMISSIONING,0,0.000,40.863,0.000,3.468,,,,,,,,
3/9/2023,,COMMISSIONING,0,0.000,40.863,0.000,3.468,,,,,,,,
4/9/2023,,COMMISSIONING,0,0.000,40.863,0.000,3.468,,,,,,,,
5/9/2023,high-beta run,SPECIAL_PHYSICS,0.01,0.008,40.871,0.001,3.468,,,,,,,,
6/9/2023,high-beta run,SPECIAL_PHYSICS,0.01,0.008,40.879,0.001,3.469,,,,,,,,
7/9/2023,high-beta run,SPECIAL_PHYSICS,0.01,0.008,40.887,0.001,3.470,,,,,,,,
8/9/2023,high-beta run,SPECIAL_PHYSICS,0.01,0.008,40.895,0.001,3.470,,,,,,,,
9/9/2023,high-beta run,SPECIAL_PHYSICS,0.01,0.008,40.903,0.001,3.471,,,,,,,,
10/9/2023,high-beta run,SPECIAL_PHYSICS,0.01,0.008,40.911,0.001,3.472,,,,,,,,
11/9/2023,pp ref run,SPECIAL_PHYSICS,0.01,0.008,40.919,0.001,3.472,,,,,,,,
12/9/2023,pp ref run,SPECIAL_PHYSICS,0.01,0.008,40.927,0.001,3.473,,,,,,,,
13/9/2023,pp ref run,SPECIAL_PHYSICS,0.01,0.008,40.935,0.001,3.474,,,,,,,,
14/9/2023,pp ref run,SPECIAL_PHYSICS,0.01,0.008,40.943,0.001,3.474,,,,,,,,
15/9/2023,pp ref run,SPECIAL_PHYSICS,0.01,0.008,40.951,0.001,3.475,,,,,,,,
16/9/2023,pp ref run,SPECIAL_PHYSICS,0.01,0.008,40.959,0.001,3.476,,,,,,,,
17/9/2023,pp ref run,SPECIAL_PHYSICS,0.01,0.008,40.967,0.001,3.476,,,,,,,,
18/9/2023,MD2,MD,0,0.000,40.967,0.000,3.476,,,,,,,,
19/9/2023,MD2,MD,0,0.000,40.967,0.000,3.476,,,,,,,,
20/9/2023,cryo,TS,0,0.000,40.967,0.000,3.476,,,,,,,,
21/9/2023,,ION_PHYSICS,0,0.000,40.967,0.000,3.476,,,,,,,,
22/9/2023,,ION_PHYSICS,0,0.000,40.967,0.000,3.476,,,,,,,,
23/9/2023,,ION_PHYSICS,0,0.000,40.967,0.000,3.476,,,,,,,,
24/9/2023,,ION_PHYSICS,0,0.000,40.967,0.000,3.476,,,,,,,,
25/9/2023,,ION_PHYSICS,0,0.000,40.967,0.000,3.476,,,,,,,,
26/9/2023,,ION_PHYSICS,0,0.000,40.967,0.000,3.476,,,,,,,,
27/9/2023,,ION_PHYSICS,0,0.000,40.967,0.000,3.476,,,,,,,,
28/9/2023,,ION_PHYSICS,0,0.000,40.967,0.000,3.476,,,,,,,,
29/9/2023,,ION_PHYSICS,0,0.000,40.967,0.000,3.476,,,,,,,,
30/9/2023,,ION_PHYSICS,0,0.000,40.967,0.000,3.476,,,,,,,,
1/10/2023,,ION_PHYSICS,0,0.000,40.967,0.000,3.476,,,,,,,,
2/10/2023,,ION_PHYSICS,0,0.000,40.967,0.000,3.476,,,,,,,,
3/10/2023,,ION_PHYSICS,0,0.000,40.967,0.000,3.476,,,,,,,,
4/10/2023,,ION_PHYSICS,0,0.000,40.967,0.000,3.476,,,,,,,,
5/10/2023,,ION_PHYSICS,0,0.000,40.967,0.000,3.476,,,,,,,,
6/10/2023,,ION_PHYSICS,0,0.000,40.967,0.000,3.476,,,,,,,,
7/10/2023,,ION_PHYSICS,0,0.000,40.967,0.000,3.476,,,,,,,,
8/10/2023,,ION_PHYSICS,0,0.000,40.967,0.000,3.476,,,,,,,,
9/10/2023,,ION_PHYSICS,0,0.000,40.967,0.000,3.476,,,,,,,,
10/10/2023,,ION_PHYSICS,0,0.000,40.967,0.000,3.476,,,,,,,,
11/10/2023,,ION_PHYSICS,0,0.000,40.967,0.000,3.476,,,,,,,,
12/10/2023,,ION_PHYSICS,0,0.000,40.967,0.000,3.476,,,,,,,,
13/10/2023,,ION_PHYSICS,0,0.000,40.967,0.000,3.476,,,,,,,,
14/10/2023,,ION_PHYSICS,0,0.000,40.967,0.000,3.476,,,,,,,,
15/10/2023,,ION_PHYSICS,0,0.000,40.967,0.000,3.476,,,,,,,,
16/10/2023,,ION_PHYSICS,0,0.000,40.967,0.000,3.476,,,,,,,,
17/10/2023,,ION_PHYSICS,0,0.000,40.967,0.000,3.476,,,,,,,,
18/10/2023,,ION_PHYSICS,0,0.000,40.967,0.000,3.476,,,,,,,,
19/10/2023,,ION_PHYSICS,0,0.000,40.967,0.000,3.476,,,,,,,,
20/10/2023,,ION_PHYSICS,0,0.000,40.967,0.000,3.476,,,,,,,,
21/10/2023,,ION_PHYSICS,0,0.000,40.967,0.000,3.476,,,,,,,,
22/10/2023,,ION_PHYSICS,0,0.000,40.967,0.000,3.476,,,,,,,,
23/10/2023,,ION_PHYSICS,0,0.000,40.967,0.000,3.476,,,,,,,,
24/10/2023,,ION_PHYSICS,0,0.000,40.967,0.000,3.476,,,,,,,,
25/10/2023,,ION_PHYSICS,0,0.000,40.967,0.000,3.476,,,,,,,,
26/10/2023,,ION_PHYSICS,0,0.000,40.967,0.000,3.476,,,,,,,,
27/10/2023,,ION_PHYSICS,0,0.000,40.967,0.000,3.476,,,,,,,,
28/10/2023,,ION_PHYSICS,0,0.000,40.967,0.000,3.476,,,,,,,,
29/10/2023,,ION_PHYSICS,0,0.000,40.967,0.000,3.476,,,,,,,,
30/10/2023,,ION_PHYSICS,0,0.000,40.967,0.000,3.476,,,,,,,,
31/10/2023,,ION_PHYSICS,0,0.000,40.967,0.000,3.476,,,,,,,,
1/11/2023,,SHUTDOWN,0,0.000,40.967,0.000,3.476,,,,,,,,
2/11/2023,,SHUTDOWN,0,0.000,40.967,0.000,3.476,,,,,,,,
3/11/2023,,SHUTDOWN,0,0.000,40.967,0.000,3.476,,,,,,,,
4/11/2023,,SHUTDOWN,0,0.000,40.967,0.000,3.476,,,,,,,,
5/11/2023,,SHUTDOWN,0,0.000,40.967,0.000,3.476,,,,,,,,
6/11/2023,,SHUTDOWN,0,0.000,40.967,0.000,3.476,,,,,,,,
7/11/2023,,SHUTDOWN,0,0.000,40.967,0.000,3.476,,,,,,,,
8/11/2023,,SHUTDOWN,0,0.000,40.967,0.000,3.476,,,,,,,,
9/11/2023,,SHUTDOWN,0,0.000,40.967,0.000,3.476,,,,,,,,
10/11/2023,,SHUTDOWN,0,0.000,40.967,0.000,3.476,,,,,,,,
11/11/2023,,SHUTDOWN,0,0.000,40.967,0.000,3.476,,,,,,,,
12/11/2023,,SHUTDOWN,0,0.000,40.967,0.000,3.476,,,,,,,,
13/11/2023,,SHUTDOWN,0,0.000,40.967,0.000,3.476,,,,,,,,
14/11/2023,,SHUTDOWN,0,0.000,40.967,0.000,3.476,,,,,,,,
15/11/2023,,SHUTDOWN,0,0.000,40.967,0.000,3.476,,,,,,,,
16/11/2023,,SHUTDOWN,0,0.000,40.967,0.000,3.476,,,,,,,,
17/11/2023,,SHUTDOWN,0,0.000,40.967,0.000,3.476,,,,,,,,
18/11/2023,,SHUTDOWN,0,0.000,40.967,0.000,3.476,,,,,,,,
19/11/2023,,SHUTDOWN,0,0.000,40.967,0.000,3.476,,,,,,,,
20/11/2023,,SHUTDOWN,0,0.000,40.967,0.000,3.476,,,,,,,,
21/11/2023,,SHUTDOWN,0,0.000,40.967,0.000,3.476,,,,,,,,
22/11/2023,,SHUTDOWN,0,0.000,40.967,0.000,3.476,,,,,,,,
23/11/2023,,SHUTDOWN,0,0.000,40.967,0.000,3.476,,,,,,,,
24/11/2023,,SHUTDOWN,0,0.000,40.967,0.000,3.476,,,,,,,,
25/11/2023,,SHUTDOWN,0,0.000,40.967,0.000,3.476,,,,,,,,
26/11/2023,,SHUTDOWN,0,0.000,40.967,0.000,3.476,,,,,,,,
27/11/2023,,SHUTDOWN,0,0.000,40.967,0.000,3.476,,,,,,,,
28/11/2023,,SHUTDOWN,0,0.000,40.967,0.000,3.476,,,,,,,,
29/11/2023,,SHUTDOWN,0,0.000,40.967,0.000,3.476,,,,,,,,
30/11/2023,,SHUTDOWN,0,0.000,40.967,0.000,3.476,,,,,,,,
1/12/2023,,SHUTDOWN,0,0.000,40.967,0.000,3.476,,,,,,,,
2/12/2023,,SHUTDOWN,0,0.000,40.967,0.000,3.476,,,,,,,,
3/12/2023,,SHUTDOWN,0,0.000,40.967,0.000,3.476,,,,,,,,
4/12/2023,,SHUTDOWN,0,0.000,40.967,0.000,3.476,,,,,,,,
5/12/2023,,SHUTDOWN,0,0.000,40.967,0.000,3.476,,,,,,,,
6/12/2023,,SHUTDOWN,0,0.000,40.967,0.000,3.476,,,,,,,,
7/12/2023,,SHUTDOWN,0,0.000,40.967,0.000,3.476,,,,,,,,
8/12/2023,,SHUTDOWN,0,0.000,40.967,0.000,3.476,,,,,,,,
9/12/2023,,SHUTDOWN,0,0.000,40.967,0.000,3.476,,,,,,,,
10/12/2023,,SHUTDOWN,0,0.000,40.967,0.000,3.476,,,,,,,,
11/12/2023,,SHUTDOWN,0,0.000,40.967,0.000,3.476,,,,,,,,
12/12/2023,,SHUTDOWN,0,0.000,40.967,0.000,3.476,,,,,,,,
13/12/2023,,SHUTDOWN,0,0.000,40.967,0.000,3.476,,,,,,,,
14/12/2023,,SHUTDOWN,0,0.000,40.967,0.000,3.476,,,,,,,,
15/12/2023,,SHUTDOWN,0,0.000,40.967,0.000,3.476,,,,,,,,
16/12/2023,,SHUTDOWN,0,0.000,40.967,0.000,3.476,,,,,,,,
17/12/2023,,SHUTDOWN,0,0.000,40.967,0.000,3.476,,,,,,,,
18/12/2023,,SHUTDOWN,0,0.000,40.967,0.000,3.476,,,,,,,,
19/12/2023,,SHUTDOWN,0,0.000,40.967,0.000,3.476,,,,,,,,
20/12/2023,,SHUTDOWN,0,0.000,40.967,0.000,3.476,,,,,,,,
21/12/2023,,SHUTDOWN,0,0.000,40.967,0.000,3.476,,,,,,,,
22/12/2023,,SHUTDOWN,0,0.000,40.967,0.000,3.476,,,,,,,,
23/12/2023,,SHUTDOWN,0,0.000,40.967,0.000,3.476,,,,,,,,
24/12/2023,,SHUTDOWN,0,0.000,40.967,0.000,3.476,,,,,,,,
25/12/2023,,SHUTDOWN,0,0.000,40.967,0.000,3.476,,,,,,,,
26/12/2023,,SHUTDOWN,0,0.000,40.967,0.000,3.476,,,,,,,,
27/12/2023,,SHUTDOWN,0,0.000,40.967,0.000,3.476,,,,,,,,
28/12/2023,,SHUTDOWN,0,0.000,40.967,0.000,3.476,,,,,,,,
29/12/2023,,SHUTDOWN,0,0.000,40.967,0.000,3.476,,,,,,,,
30/12/2023,,SHUTDOWN,0,0.000,40.967,0.000,3.476,,,,,,,,
31/12/2023,,SHUTDOWN,0,0.000,40.967,0.000,3.476,,,,,,,,
,,,,,,,,,,,,,,,
,,,run time (days),,,,,,,,,,,,
,,,51.31,,,,,,,,,,,,